<svg width="50" height="44" viewBox="0 0 50 44" fill="none" xmlns="http://www.w3.org/2000/svg">
<path fill-rule="evenodd" clip-rule="evenodd" d="M47.2164 19.8606C47.5973 19.68 48.0455 19.7149 48.3939 19.9524C48.7422 20.1898 48.9386 20.5942 48.9097 21.0148C48.5321 26.3823 46.5823 40.3188 36.3697 40.3188C31.5402 40.3188 27.625 36.4036 27.625 31.574C27.625 26.7445 31.5402 22.8293 36.3697 22.8293C40.15 22.5902 43.8413 21.5799 47.2164 19.8606V19.8606Z" stroke="#405D6F" stroke-width="2" stroke-linecap="round" stroke-linejoin="round"/>
<path d="M26.4375 42.6934C28.7856 36.7868 33.4173 32.0772 39.2839 29.6309" stroke="#405D6F" stroke-width="2" stroke-linecap="round" stroke-linejoin="round"/>
<path fill-rule="evenodd" clip-rule="evenodd" d="M4.42366 1.28047C4.10106 1.00787 3.65794 0.927144 3.25992 1.06845C2.86191 1.20976 2.5689 1.55185 2.49041 1.96685C1.29816 8.28672 -1.15521 27.4245 12.0379 30.7305C15.9782 31.7745 20.1755 30.6174 23.0242 27.7018C25.8729 24.7861 26.9322 20.5631 25.7969 16.6481C24.6616 12.7331 21.5074 9.7319 17.5408 8.7926C12.694 7.22707 8.22664 4.66864 4.42366 1.28047V1.28047Z" stroke="#405D6F" stroke-width="2" stroke-linecap="round" stroke-linejoin="round"/>
<path d="M26.4375 42.6937C26.4375 42.6937 22.7112 24.3397 11.7434 16.4072" stroke="#405D6F" stroke-width="2" stroke-linecap="round" stroke-linejoin="round"/>
</svg>
