<svg width="53" height="52" viewBox="0 0 53 52" fill="none" xmlns="http://www.w3.org/2000/svg">
<path fill-rule="evenodd" clip-rule="evenodd" d="M1 32.0083C1 31.7322 1.22386 31.5083 1.5 31.5083H9.21765C9.49379 31.5083 9.71765 31.7322 9.71765 32.0083V48.4436C9.71765 48.7197 9.49379 48.9436 9.21765 48.9436H1.5C1.22386 48.9436 1 48.7197 1 48.4436V32.0083Z" stroke="#405D6F" stroke-width="2" stroke-linecap="round" stroke-linejoin="round"/>
<path d="M9.71753 45.6748C33.1004 53.4705 24.4765 53.5512 51.1264 40.2262C49.6192 38.2011 47.0089 37.331 44.5881 38.0468L35.4999 41" stroke="#405D6F" stroke-width="2" stroke-linecap="round" stroke-linejoin="round"/>
<path d="M9.71753 33.688H16.2558C19.9653 33.819 23.4801 35.3811 26.0631 38.0468H32.6014C33.4999 38 34.3541 38.2681 34.8415 39.0075C35.3289 39.7469 35.3289 40.7056 34.8415 41.445C34.3541 42.1843 33.4641 42.4056 32.6014 42.4056H20.6146" stroke="#405D6F" stroke-width="2" stroke-linecap="round" stroke-linejoin="round"/>
<path d="M14.8435 26.2692C10.5911 17.8098 13.867 7.50264 22.2232 3.05069C30.5793 -1.40126 40.9612 1.62927 45.6102 9.87745C50.2591 18.1256 47.4757 28.5765 39.3401 33.4198" stroke="#405D6F" stroke-width="2" stroke-linecap="round" stroke-linejoin="round"/>
<path d="M43.311 6.69151C42.878 9.02408 41.5073 11.077 39.5189 12.3711C36.4873 11.6126 33.4557 13.8836 34.212 13.8836C34.9682 13.8836 35.7376 16.9173 35.7376 16.9173C36.496 17.6757 38.0129 16.9173 38.0129 16.9173C39.9068 18.8112 34.9791 22.2264 34.9791 22.9826C34.9791 23.7389 36.8774 24.1203 35.7376 25.2579C35.0967 25.922 34.3219 26.4421 33.4645 26.7835C33.4645 30.5735 29.6723 30.5735 28.916 30.5735C28.1598 30.5735 26.6407 27.5398 26.6407 26.7835C26.6407 26.0273 27.4013 25.2579 27.4013 24.5104C27.4013 23.7628 25.8757 22.2373 25.8757 22.2373C25.8757 19.2035 23.6026 19.962 21.3251 19.962C19.0476 19.962 19.052 16.9173 19.052 16.9173C19.052 16.9173 19.052 11.6126 22.8442 10.8564C26.6364 10.1001 26.632 11.6126 26.632 11.6126C28.1576 13.1382 31.1804 11.6126 32.6973 11.6126C32.6973 11.6126 33.4557 6.30576 31.9389 7.06419C30.422 7.82263 29.0642 7.23419 28.9073 5.5386C28.6785 3.17612 35.5218 1.75732 35.5218 1.75732" stroke="#405D6F" stroke-width="2" stroke-linecap="round" stroke-linejoin="round"/>
</svg>
