<svg width="85" height="53" viewBox="0 0 85 53" fill="none" xmlns="http://www.w3.org/2000/svg">
<path d="M55.5 14.5L59 12L69 26L61.5 30" stroke="#405D6F" stroke-width="2" stroke-miterlimit="10" stroke-linecap="round" stroke-linejoin="round"/>
<path d="M24.5 17.5L32.4905 20.0752C32.4905 20.0752 34.4606 18.6292 36.5 18" stroke="#405D6F" stroke-width="2" stroke-miterlimit="10" stroke-linecap="round" stroke-linejoin="round"/>
<path d="M52.9635 33.3953L58.4723 37.4241C59.8701 38.4107 61.9256 37.9174 63.0767 36.273C64.2278 34.6286 64.0633 32.5731 62.7478 31.5042L48.5 21" stroke="#405D6F" stroke-width="2" stroke-miterlimit="10" stroke-linecap="round" stroke-linejoin="round"/>
<path d="M48.9348 38.9863L54.1969 42.7685C55.5125 43.6729 57.4036 43.2618 58.5546 41.6996C59.7057 40.1374 59.5413 38.1641 58.2258 37.2597L52.9636 33.4775" stroke="#405D6F" stroke-width="2" stroke-miterlimit="10" stroke-linecap="round" stroke-linejoin="round"/>
<path d="M45.317 44.0013L50.0858 47.4546C51.2369 48.2768 53.0458 47.8657 54.0324 46.4679C55.0191 45.0702 54.9368 43.2613 53.7035 42.4391L48.9347 38.9858" stroke="#405D6F" stroke-width="2" stroke-miterlimit="10" stroke-linecap="round" stroke-linejoin="round"/>
<path d="M41.5 47.5L46.1393 50.6614C47.0437 51.3191 48.4414 50.9902 49.2637 49.9214C50.0859 48.8525 49.9214 47.4547 49.017 46.7148L45.3171 44.0015" stroke="#405D6F" stroke-width="2" stroke-miterlimit="10" stroke-linecap="round" stroke-linejoin="round"/>
<path d="M8.64653 9.87988L24.9263 15.7998L17.2797 37.095L1 31.2573" stroke="#405D6F" stroke-width="2" stroke-miterlimit="10" stroke-linecap="round" stroke-linejoin="round"/>
<path d="M18.8418 19.2527C18.4307 20.3215 17.2796 20.8971 16.2107 20.486C15.1419 20.0749 14.5663 18.9238 14.9774 17.8549C15.3885 16.786 16.5396 16.2105 17.6085 16.6216C18.6774 16.9505 19.2529 18.1838 18.8418 19.2527Z" stroke="#405D6F" stroke-width="2" stroke-miterlimit="10" stroke-linecap="round" stroke-linejoin="round"/>
<path d="M16.2109 20.4858L14.6487 24.7613" stroke="#405D6F" stroke-width="2" stroke-miterlimit="10" stroke-linecap="round" stroke-linejoin="round"/>
<path d="M70.2299 1L57.7323 9.79762L70.641 28.2973L83.2207 19.5819" stroke="#405D6F" stroke-width="2" stroke-miterlimit="10" stroke-linecap="round" stroke-linejoin="round"/>
<path d="M32.4906 20.0752L31.175 24.104" stroke="#405D6F" stroke-width="2" stroke-miterlimit="10" stroke-linecap="round" stroke-linejoin="round"/>
<path d="M32.2439 33.6417C30.8461 32.9017 29.1195 33.2306 28.4617 34.3817L26.0773 38.8216C25.4196 40.0549 25.9951 41.6171 27.4751 42.4393C28.8728 43.1793 30.5995 42.8504 31.2572 41.6993L33.6416 37.3416C34.2994 36.0261 33.6416 34.4639 32.2439 33.6417Z" stroke="#405D6F" stroke-width="2" stroke-miterlimit="10" stroke-linecap="round" stroke-linejoin="round"/>
<path d="M27.2284 30.6817C25.8306 29.9418 24.104 30.2706 23.4462 31.4217L21.0618 35.7794C20.404 37.0127 20.9796 38.5749 22.4596 39.3971C23.9395 40.2194 25.584 39.8082 26.2417 38.6572L28.6261 34.2995C29.2017 33.0661 28.6261 31.504 27.2284 30.6817Z" stroke="#405D6F" stroke-width="2" stroke-miterlimit="10" stroke-linecap="round" stroke-linejoin="round"/>
<path d="M37.3415 36.5191C35.9438 35.7792 34.2171 36.108 33.5594 37.2591L31.175 41.6168C30.5172 42.8502 31.0928 44.4123 32.5727 45.2346C33.9705 45.9745 35.6971 45.6457 36.3549 44.4946L38.7393 40.1369C39.3971 38.9035 38.8215 37.2591 37.3415 36.5191Z" stroke="#405D6F" stroke-width="2" stroke-miterlimit="10" stroke-linecap="round" stroke-linejoin="round"/>
<path d="M41.4526 40.2193C40.2193 39.5615 38.8215 39.8082 38.246 40.877L36.2727 44.577C35.6971 45.5636 36.2727 46.9614 37.4238 47.6192C38.6571 48.2769 40.0548 48.0303 40.6304 46.9614L42.6859 43.2615C43.1792 42.1926 42.6859 40.877 41.4526 40.2193Z" stroke="#405D6F" stroke-width="2" stroke-miterlimit="10" stroke-linecap="round" stroke-linejoin="round"/>
<path d="M55.5 14.5L46.7148 13.4155L39.7261 15.2244C37.9172 15.7177 36.6017 17.1977 36.2728 19.0065C36.0261 20.4865 36.0261 22.0487 36.0261 23.1176C36.1083 25.2553 37.9172 27.0642 40.0549 26.8175C41.206 26.6531 42.1105 25.7486 42.2749 24.5976L42.8505 21.1443L48.5 21" stroke="#405D6F" stroke-width="2" stroke-miterlimit="10" stroke-linecap="round" stroke-linejoin="round"/>
<path d="M19 34L21.5 35" stroke="#405D6F" stroke-width="2"/>
</svg>
