<?xml version="1.0" encoding="UTF-8"?>
<!DOCTYPE svg PUBLIC "-//W3C//DTD SVG 1.1//EN" "http://www.w3.org/Graphics/SVG/1.1/DTD/svg11.dtd">
<!-- Creator: CorelDRAW -->
<svg xmlns="http://www.w3.org/2000/svg" xml:space="preserve" width="50.8mm" height="50.8mm" version="1.1" style="shape-rendering:geometricPrecision; text-rendering:geometricPrecision; image-rendering:optimizeQuality; fill-rule:evenodd; clip-rule:evenodd"
viewBox="0 0 5080 5080"
 xmlns:xlink="http://www.w3.org/1999/xlink"
 xmlns:xodm="http://www.corel.com/coreldraw/odm/2003">
 <defs>
  <style type="text/css">
   <![CDATA[
    .str0 {stroke:#405D6F;stroke-width:84.67;stroke-miterlimit:22.9256}
    .fil0 {fill:white}
    .fil1 {fill:#466274;fill-rule:nonzero}
   ]]>
  </style>
 </defs>
 <g id="Ebene_x0020_1">
  <metadata id="CorelCorpID_0Corel-Layer"/>
  <g id="_1939991056688">
   <rect id="PolygonWalldorf" class="fil0 str0" transform="matrix(0.696024 -0.696024 0.696024 0.696024 84.6636 2539.99)" width="3527.66" height="3527.66"/>
   <path class="fil1" d="M1477.01 2692.83l-73.56 -396.38 91.8 0 27.36 185.42c2.43,20.67 5.06,41.45 7.9,62.32 2.84,20.87 5.47,41.85 7.9,62.92l2.44 0c4.05,-21.07 8,-42.05 11.85,-62.92 3.85,-20.87 7.8,-41.65 11.86,-62.32l42.55 -185.42 75.99 0 42.56 185.42c4.05,19.86 8,40.33 11.85,61.41 3.85,21.07 7.81,42.35 11.86,63.83l2.43 0c2.84,-21.48 5.57,-42.66 8.21,-63.53 2.63,-20.87 5.37,-41.44 8.21,-61.71l27.35 -185.42 85.72 0 -70.52 396.38 -112.47 0 -38.91 -179.95c-3.24,-15.4 -6.18,-30.9 -8.81,-46.51 -2.64,-15.6 -4.97,-30.7 -6.99,-45.29l-2.43 0c-2.44,14.59 -4.97,29.69 -7.6,45.29 -2.64,15.61 -5.58,31.11 -8.82,46.51l-37.08 179.95 -110.65 0z"/>
   <path id="_1" class="fil1" d="M1997.41 2700.13c-27.56,0 -49.45,-8.82 -65.66,-26.45 -16.21,-17.63 -24.32,-39.21 -24.32,-64.75 0,-31.61 13.38,-56.33 40.13,-74.16 26.75,-17.84 69.91,-29.79 129.49,-35.87 -0.81,-13.38 -4.76,-24.02 -11.86,-31.92 -7.09,-7.9 -18.94,-11.85 -35.56,-11.85 -12.56,0 -25.33,2.43 -38.3,7.29 -12.97,4.86 -26.75,11.55 -41.34,20.06l-32.22 -58.97c19.05,-11.75 39.41,-21.28 61.1,-28.57 21.68,-7.3 44.27,-10.94 67.78,-10.94 38.5,0 68.09,11.14 88.76,33.43 20.67,22.29 31.01,56.54 31.01,102.75l0 172.65 -72.96 0 -6.08 -31 -2.43 0c-12.56,11.34 -26.04,20.56 -40.43,27.66 -14.38,7.09 -30.09,10.64 -47.11,10.64zm30.4 -69.31c10.13,0 18.94,-2.33 26.44,-6.99 7.5,-4.66 15.1,-10.84 22.8,-18.54l0 -52.89c-31.61,4.05 -53.5,10.43 -65.66,19.15 -12.16,8.71 -18.24,18.94 -18.24,30.7 0,9.72 3.14,16.92 9.43,21.58 6.28,4.66 14.69,6.99 25.23,6.99z"/>
   <path id="_2" class="fil1" d="M2323.87 2700.13c-30.8,0 -52.18,-9.23 -64.14,-27.67 -11.96,-18.44 -17.93,-42.86 -17.93,-73.25l0 -332.55 89.36 0 0 336.19c0,9.33 1.73,15.81 5.17,19.46 3.45,3.65 6.99,5.47 10.64,5.47 2.03,0 3.75,-0.1 5.17,-0.3 1.42,-0.21 3.34,-0.51 5.77,-0.92l10.95 66.27c-4.87,2.03 -11.05,3.75 -18.55,5.17 -7.49,1.42 -16.31,2.13 -26.44,2.13z"/>
   <path id="_3" class="fil1" d="M2497.74 2700.13c-30.8,0 -52.18,-9.23 -64.14,-27.67 -11.96,-18.44 -17.93,-42.86 -17.93,-73.25l0 -332.55 89.36 0 0 336.19c0,9.33 1.73,15.81 5.17,19.46 3.45,3.65 6.99,5.47 10.64,5.47 2.03,0 3.75,-0.1 5.17,-0.3 1.42,-0.21 3.34,-0.51 5.77,-0.92l10.95 66.27c-4.87,2.03 -11.05,3.75 -18.55,5.17 -7.49,1.42 -16.31,2.13 -26.44,2.13z"/>
   <path id="_4" class="fil1" d="M2697.14 2700.13c-37.29,0 -67.18,-14.09 -89.67,-42.26 -22.49,-28.16 -33.74,-66.77 -33.74,-115.81 0,-32.83 5.98,-61.1 17.93,-84.81 11.96,-23.71 27.56,-41.84 46.82,-54.41 19.25,-12.56 39.41,-18.84 60.49,-18.84 16.61,0 30.59,2.83 41.94,8.51 11.35,5.67 22.09,13.37 32.22,23.1l-3.64 -46.2 0 -102.75 89.36 0 0 426.17 -72.95 0 -6.08 -29.79 -2.43 0c-10.54,10.54 -22.9,19.35 -37.08,26.45 -14.19,7.09 -28.58,10.64 -43.17,10.64zm23.1 -72.96c9.73,0 18.55,-2.02 26.45,-6.08 7.9,-4.05 15.5,-11.14 22.8,-21.27l0 -123.42c-7.7,-7.29 -15.91,-12.36 -24.63,-15.2 -8.71,-2.83 -17.12,-4.25 -25.22,-4.25 -14.19,0 -26.75,6.79 -37.7,20.37 -10.94,13.57 -16.41,34.75 -16.41,63.53 0,29.58 4.76,51.37 14.29,65.35 9.52,13.98 23,20.97 40.42,20.97z"/>
   <path id="_5" class="fil1" d="M3067.38 2700.13c-25.54,0 -49.55,-6.19 -72.04,-18.55 -22.5,-12.36 -40.63,-30.39 -54.41,-54.1 -13.78,-23.71 -20.67,-52.19 -20.67,-85.42 0,-33.64 6.89,-62.21 20.67,-85.72 13.78,-23.51 31.91,-41.44 54.41,-53.8 22.49,-12.36 46.5,-18.54 72.04,-18.54 25.53,0 49.44,6.18 71.73,18.54 22.3,12.36 40.33,30.29 54.11,53.8 13.78,23.51 20.67,52.08 20.67,85.72 0,33.23 -6.89,61.71 -20.67,85.42 -13.78,23.71 -31.81,41.74 -54.11,54.1 -22.29,12.36 -46.2,18.55 -71.73,18.55zm0 -72.35c18.24,0 32.02,-7.8 41.34,-23.41 9.32,-15.6 13.98,-36.37 13.98,-62.31 0,-26.34 -4.66,-47.22 -13.98,-62.62 -9.32,-15.4 -23.1,-23.1 -41.34,-23.1 -18.65,0 -32.53,7.7 -41.65,23.1 -9.12,15.4 -13.68,36.28 -13.68,62.62 0,25.94 4.56,46.71 13.68,62.31 9.12,15.61 23,23.41 41.65,23.41z"/>
   <path id="_6" class="fil1" d="M3275.3 2692.83l0 -301.54 72.95 0 6.08 52.89 2.43 0c10.94,-20.26 24.12,-35.36 39.52,-45.29 15.4,-9.93 30.8,-14.89 46.2,-14.89 8.51,0 15.6,0.5 21.28,1.52 5.67,1.01 10.54,2.53 14.59,4.56l-14.59 77.2c-5.27,-1.62 -10.44,-2.83 -15.5,-3.64 -5.07,-0.81 -10.85,-1.22 -17.33,-1.22 -11.35,0 -23.2,4.16 -35.57,12.46 -12.36,8.31 -22.59,22.6 -30.7,42.86l0 175.09 -89.36 0z"/>
   <path id="_7" class="fil1" d="M3532.45 2692.83l0 -231.63 -40.12 0 0 -66.26 40.12 -3.04 0 -16.41c0,-21.49 3.65,-40.94 10.95,-58.37 7.29,-17.42 19.05,-31.41 35.26,-41.94 16.21,-10.54 37.89,-15.81 65.05,-15.81 12.56,0 24.11,1.21 34.65,3.65 10.54,2.43 19.05,4.86 25.53,7.29l-16.41 65.66c-5.27,-2.03 -10.54,-3.55 -15.81,-4.56 -5.27,-1.01 -10.33,-1.52 -15.2,-1.52 -10.94,0 -19.45,3.34 -25.53,10.03 -6.08,6.69 -9.12,17.73 -9.12,33.13l0 18.24 54.11 0 0 69.91 -54.11 0 0 231.63 -89.37 0z"/>
  </g>
 </g>
</svg>
