<?xml version="1.0" encoding="UTF-8"?>
<!DOCTYPE svg PUBLIC "-//W3C//DTD SVG 1.1//EN" "http://www.w3.org/Graphics/SVG/1.1/DTD/svg11.dtd">
<!-- Creator: CorelDRAW -->
<svg xmlns="http://www.w3.org/2000/svg" xml:space="preserve" width="50.8mm" height="50.8mm" version="1.1" style="shape-rendering:geometricPrecision; text-rendering:geometricPrecision; image-rendering:optimizeQuality; fill-rule:evenodd; clip-rule:evenodd"
viewBox="0 0 5080 5080"
 xmlns:xlink="http://www.w3.org/1999/xlink"
 xmlns:xodm="http://www.corel.com/coreldraw/odm/2003">
 <defs>
  <style type="text/css">
   <![CDATA[
    .str0 {stroke:#405D6F;stroke-width:84.67;stroke-miterlimit:22.9256}
    .fil0 {fill:white}
    .fil1 {fill:#466274;fill-rule:nonzero}
   ]]>
  </style>
 </defs>
 <g id="Ebene_x0020_1">
  <metadata id="CorelCorpID_0Corel-Layer"/>
  <g id="_2062433371664">
   <rect id="PolygonStrategiebox" class="fil0 str0" transform="matrix(0.696024 -0.696024 0.696024 0.696024 84.663 2540.01)" width="3527.66" height="3527.66"/>
   <path class="fil1" d="M1003.42 2700.14c-25.94,0 -51.77,-4.87 -77.51,-14.6 -25.74,-9.72 -48.74,-23.91 -69,-42.55l51.06 -61.4c14.19,12.16 30,22.09 47.42,29.79 17.43,7.7 34.25,11.55 50.46,11.55 18.65,0 32.53,-3.45 41.65,-10.34 9.12,-6.89 13.68,-16.21 13.68,-27.96 0,-12.57 -5.17,-21.79 -15.51,-27.66 -10.33,-5.88 -24.21,-12.47 -41.64,-19.76l-51.68 -21.89c-13.37,-5.67 -26.14,-13.27 -38.3,-22.8 -12.15,-9.52 -22.08,-21.38 -29.78,-35.56 -7.71,-14.19 -11.56,-30.8 -11.56,-49.85 0,-21.89 5.98,-41.75 17.94,-59.58 11.95,-17.83 28.57,-32.02 49.85,-42.56 21.28,-10.53 45.7,-15.8 73.26,-15.8 22.69,0 45.39,4.46 68.09,13.37 22.69,8.92 42.55,21.89 59.57,38.91l-45.59 56.54c-12.97,-10.13 -25.94,-17.94 -38.91,-23.41 -12.97,-5.47 -27.36,-8.2 -43.16,-8.2 -15.4,0 -27.66,3.14 -36.78,9.42 -9.12,6.28 -13.68,15.1 -13.68,26.44 0,12.16 5.77,21.28 17.32,27.36 11.55,6.08 25.84,12.57 42.86,19.46l51.07 20.67c23.91,9.72 42.96,23.1 57.15,40.12 14.18,17.02 21.27,39.52 21.27,67.48 0,21.89 -5.87,42.15 -17.63,60.8 -11.75,18.64 -28.77,33.63 -51.06,44.98 -22.29,11.35 -49.25,17.03 -80.86,17.03z"/>
   <path id="_1" class="fil1" d="M1312.25 2700.14c-37.28,0 -63.93,-10.74 -79.94,-32.23 -16.01,-21.48 -24.02,-49.64 -24.02,-84.5l0 -122.2 -41.34 0 0 -66.26 46.21 -3.65 10.33 -80.25 74.17 0 0 80.25 72.35 0 0 69.91 -72.35 0 0 120.98c0,17.03 3.55,29.29 10.64,36.79 7.09,7.49 16.52,11.24 28.27,11.24 4.86,0 9.83,-0.61 14.89,-1.82 5.07,-1.22 9.63,-2.64 13.68,-4.26l13.99 65.05c-7.7,2.43 -17.13,4.87 -28.27,7.3 -11.15,2.43 -24.02,3.65 -38.61,3.65z"/>
   <path id="_2" class="fil1" d="M1428.98 2692.84l0 -301.54 72.95 0 6.08 52.89 2.43 0c10.94,-20.26 24.12,-35.36 39.52,-45.29 15.4,-9.93 30.8,-14.89 46.2,-14.89 8.51,0 15.6,0.5 21.28,1.52 5.67,1.01 10.54,2.53 14.59,4.56l-14.59 77.2c-5.27,-1.62 -10.44,-2.83 -15.5,-3.64 -5.07,-0.81 -10.85,-1.22 -17.33,-1.22 -11.35,0 -23.2,4.16 -35.57,12.46 -12.36,8.31 -22.59,22.6 -30.7,42.86l0 175.09 -89.36 0z"/>
   <path id="_3" class="fil1" d="M1729.91 2700.14c-27.56,0 -49.45,-8.82 -65.66,-26.45 -16.21,-17.63 -24.32,-39.21 -24.32,-64.75 0,-31.61 13.38,-56.33 40.13,-74.16 26.75,-17.84 69.91,-29.79 129.49,-35.87 -0.81,-13.38 -4.76,-24.02 -11.86,-31.92 -7.09,-7.9 -18.94,-11.85 -35.56,-11.85 -12.56,0 -25.33,2.43 -38.3,7.29 -12.97,4.86 -26.75,11.55 -41.34,20.06l-32.22 -58.97c19.05,-11.75 39.41,-21.28 61.1,-28.57 21.68,-7.3 44.27,-10.94 67.78,-10.94 38.5,0 68.09,11.14 88.76,33.43 20.67,22.29 31.01,56.54 31.01,102.75l0 172.65 -72.96 0 -6.08 -31 -2.43 0c-12.56,11.34 -26.04,20.56 -40.43,27.66 -14.38,7.09 -30.09,10.64 -47.11,10.64zm30.4 -69.31c10.13,0 18.94,-2.33 26.44,-6.99 7.5,-4.66 15.1,-10.84 22.8,-18.54l0 -52.89c-31.61,4.05 -53.5,10.43 -65.66,19.15 -12.16,8.71 -18.24,18.94 -18.24,30.7 0,9.72 3.14,16.92 9.43,21.58 6.28,4.66 14.69,6.99 25.23,6.99z"/>
   <path id="_4" class="fil1" d="M2079.47 2700.14c-37.28,0 -63.93,-10.74 -79.94,-32.23 -16.01,-21.48 -24.02,-49.64 -24.02,-84.5l0 -122.2 -41.34 0 0 -66.26 46.21 -3.65 10.33 -80.25 74.17 0 0 80.25 72.35 0 0 69.91 -72.35 0 0 120.98c0,17.03 3.55,29.29 10.64,36.79 7.09,7.49 16.52,11.24 28.27,11.24 4.86,0 9.83,-0.61 14.89,-1.82 5.07,-1.22 9.63,-2.64 13.68,-4.26l13.99 65.05c-7.7,2.43 -17.13,4.87 -28.27,7.3 -11.15,2.43 -24.02,3.65 -38.61,3.65z"/>
   <path id="_5" class="fil1" d="M2320.22 2700.14c-28.78,0 -54.72,-6.29 -77.82,-18.85 -23.1,-12.56 -41.34,-30.6 -54.71,-54.11 -13.38,-23.5 -20.06,-51.88 -20.06,-85.11 0,-32.83 6.78,-61 20.36,-84.5 13.58,-23.51 31.31,-41.65 53.2,-54.41 21.88,-12.77 44.78,-19.15 68.69,-19.15 28.78,0 52.59,6.38 71.44,19.15 18.84,12.76 33.03,29.99 42.55,51.67 9.53,21.68 14.29,46.31 14.29,73.87 0,7.7 -0.41,15.3 -1.22,22.79 -0.81,7.5 -1.62,13.07 -2.43,16.72l-180.56 0c4.06,21.89 13.18,38 27.36,48.33 14.19,10.34 31.21,15.51 51.07,15.51 21.48,0 43.16,-6.69 65.05,-20.07l29.79 54.11c-15.4,10.54 -32.63,18.85 -51.68,24.93 -19.05,6.08 -37.49,9.12 -55.32,9.12zm-66.87 -190.9l108.82 0c0,-16.61 -3.95,-30.29 -11.86,-41.03 -7.9,-10.74 -20.77,-16.11 -38.6,-16.11 -13.78,0 -26.14,4.76 -37.09,14.28 -10.94,9.53 -18.03,23.81 -21.27,42.86z"/>
   <path id="_6" class="fil1" d="M2601.69 2821.12c-23.51,0 -44.78,-2.64 -63.83,-7.91 -19.05,-5.27 -34.25,-13.58 -45.6,-24.92 -11.35,-11.35 -17.02,-25.94 -17.02,-43.78 0,-24.31 14.39,-44.58 43.16,-60.79l0 -2.43c-7.7,-5.27 -14.28,-11.96 -19.75,-20.06 -5.48,-8.11 -8.21,-18.44 -8.21,-31.01 0,-10.94 3.24,-21.48 9.73,-31.61 6.48,-10.13 14.59,-18.44 24.31,-24.93l0 -2.43c-10.53,-7.29 -19.96,-17.83 -28.27,-31.61 -8.3,-13.78 -12.46,-29.38 -12.46,-46.81 0,-24.32 5.88,-44.48 17.63,-60.49 11.75,-16.01 27.16,-28.07 46.2,-36.17 19.05,-8.11 39.32,-12.16 60.8,-12.16 17.83,0 33.44,2.43 46.81,7.29l110.04 0 0 65.05 -48.03 0c2.84,4.46 5.17,10.13 6.99,17.02 1.83,6.89 2.74,14.39 2.74,22.5 0,23.1 -5.27,42.15 -15.81,57.14 -10.54,15 -24.72,26.15 -42.56,33.44 -17.83,7.3 -37.89,10.94 -60.18,10.94 -11.75,0 -23.91,-2.02 -36.48,-6.08 -7.29,6.08 -10.94,13.58 -10.94,22.5 0,7.7 3.44,13.37 10.33,17.02 6.89,3.65 18.65,5.47 35.26,5.47l48.64 0c37.29,0 65.76,5.98 85.42,17.94 19.65,11.95 29.48,31.51 29.48,58.66 0,20.67 -6.89,39.21 -20.67,55.63 -13.78,16.41 -33.23,29.28 -58.36,38.6 -25.13,9.32 -54.92,13.99 -89.37,13.99zm6.69 -277.83c11.75,0 21.58,-4.26 29.48,-12.77 7.91,-8.51 11.86,-21.08 11.86,-37.69 0,-15.81 -3.95,-27.87 -11.86,-36.17 -7.9,-8.31 -17.73,-12.47 -29.48,-12.47 -11.75,0 -21.58,4.06 -29.49,12.16 -7.9,8.11 -11.85,20.27 -11.85,36.48 0,16.61 3.95,29.18 11.85,37.69 7.91,8.51 17.74,12.77 29.49,12.77zm7.29 221.89c20.27,0 36.89,-3.64 49.86,-10.94 12.96,-7.29 19.45,-16.01 19.45,-26.14 0,-9.32 -3.95,-15.6 -11.86,-18.85 -7.9,-3.24 -19.35,-4.86 -34.34,-4.86l-31.01 0c-10.13,0 -18.54,-0.3 -25.23,-0.91 -6.69,-0.61 -12.46,-1.52 -17.32,-2.74 -10.95,9.73 -16.42,19.66 -16.42,29.79 0,11.35 6.18,19.96 18.54,25.84 12.36,5.88 28.47,8.81 48.33,8.81z"/>
   <path id="_7" class="fil1" d="M2818.73 2692.84l0 -301.54 89.36 0 0 301.54 -89.36 0zm44.38 -345.92c-15,0 -27.16,-4.25 -36.48,-12.76 -9.32,-8.52 -13.98,-19.86 -13.98,-34.05 0,-14.18 4.66,-25.53 13.98,-34.04 9.32,-8.52 21.48,-12.77 36.48,-12.77 14.99,0 27.15,4.25 36.47,12.77 9.32,8.51 13.98,19.86 13.98,34.04 0,14.19 -4.66,25.53 -13.98,34.05 -9.32,8.51 -21.48,12.76 -36.47,12.76z"/>
   <path id="_8" class="fil1" d="M3121.48 2700.14c-28.78,0 -54.72,-6.29 -77.82,-18.85 -23.1,-12.56 -41.34,-30.6 -54.71,-54.11 -13.38,-23.5 -20.06,-51.88 -20.06,-85.11 0,-32.83 6.78,-61 20.36,-84.5 13.58,-23.51 31.31,-41.65 53.2,-54.41 21.88,-12.77 44.78,-19.15 68.69,-19.15 28.78,0 52.59,6.38 71.44,19.15 18.84,12.76 33.03,29.99 42.55,51.67 9.53,21.68 14.29,46.31 14.29,73.87 0,7.7 -0.41,15.3 -1.22,22.79 -0.81,7.5 -1.62,13.07 -2.43,16.72l-180.56 0c4.06,21.89 13.18,38 27.36,48.33 14.19,10.34 31.21,15.51 51.07,15.51 21.48,0 43.16,-6.69 65.05,-20.07l29.79 54.11c-15.4,10.54 -32.63,18.85 -51.68,24.93 -19.05,6.08 -37.49,9.12 -55.32,9.12zm-66.87 -190.9l108.82 0c0,-16.61 -3.95,-30.29 -11.86,-41.03 -7.9,-10.74 -20.77,-16.11 -38.6,-16.11 -13.78,0 -26.14,4.76 -37.09,14.28 -10.94,9.53 -18.03,23.81 -21.27,42.86z"/>
   <path id="_9" class="fil1" d="M3459.49 2700.14c-13.37,0 -26.85,-3.35 -40.43,-10.04 -13.57,-6.68 -26.24,-16.51 -37.99,-29.48l-2.44 0 -7.29 32.22 -69.91 0 0 -426.17 89.36 0 0 104.57 -2.43 46.2c11.76,-10.53 24.52,-18.74 38.3,-24.62 13.78,-5.88 27.56,-8.81 41.34,-8.81 24.32,0 45.39,6.28 63.23,18.84 17.83,12.57 31.51,30.3 41.03,53.2 9.53,22.9 14.29,49.75 14.29,80.55 0,34.45 -6.08,63.93 -18.24,88.45 -12.16,24.52 -27.86,43.17 -47.11,55.94 -19.26,12.76 -39.82,19.15 -61.71,19.15zm-20.67 -72.96c15.4,0 28.57,-7.09 39.52,-21.28 10.94,-14.18 16.41,-36.67 16.41,-67.48 0,-54.31 -17.43,-81.46 -52.28,-81.46 -17.83,0 -35.06,9.12 -51.68,27.36l0 123.41c8.11,7.29 16.22,12.36 24.32,15.2 8.11,2.83 16.01,4.25 23.71,4.25z"/>
   <path id="_10" class="fil1" d="M3779.27 2700.14c-25.54,0 -49.55,-6.19 -72.04,-18.55 -22.5,-12.36 -40.63,-30.39 -54.41,-54.1 -13.78,-23.71 -20.67,-52.19 -20.67,-85.42 0,-33.64 6.89,-62.21 20.67,-85.72 13.78,-23.51 31.91,-41.44 54.41,-53.8 22.49,-12.36 46.5,-18.54 72.04,-18.54 25.53,0 49.44,6.18 71.73,18.54 22.3,12.36 40.33,30.29 54.11,53.8 13.78,23.51 20.67,52.08 20.67,85.72 0,33.23 -6.89,61.71 -20.67,85.42 -13.78,23.71 -31.81,41.74 -54.11,54.1 -22.29,12.36 -46.2,18.55 -71.73,18.55zm0 -72.35c18.24,0 32.02,-7.8 41.34,-23.41 9.32,-15.6 13.98,-36.37 13.98,-62.31 0,-26.34 -4.66,-47.22 -13.98,-62.62 -9.32,-15.4 -23.1,-23.1 -41.34,-23.1 -18.65,0 -32.53,7.7 -41.65,23.1 -9.12,15.4 -13.68,36.28 -13.68,62.62 0,25.94 4.56,46.71 13.68,62.31 9.12,15.61 23,23.41 41.65,23.41z"/>
   <path id="_11" class="fil1" d="M3940.37 2692.84l92.41 -156.85 -86.94 -144.69 96.06 0 26.75 48.64c4.05,8.51 8.31,17.12 12.76,25.83 4.46,8.72 8.72,17.33 12.77,25.84l2.43 0c3.24,-8.51 6.69,-17.12 10.34,-25.84 3.64,-8.71 7.09,-17.32 10.33,-25.83l20.67 -48.64 92.41 0 -87.54 155.03 93.01 146.51 -96.05 0 -29.19 -49.85c-4.86,-8.51 -9.62,-17.23 -14.28,-26.14 -4.66,-8.92 -9.43,-17.63 -14.29,-26.14l-2.43 0c-3.65,8.51 -7.5,17.12 -11.55,25.83 -4.05,8.72 -7.9,17.53 -11.55,26.45l-23.71 49.85 -92.41 0z"/>
  </g>
 </g>
</svg>
