<?xml version="1.0" encoding="UTF-8"?>
<!DOCTYPE svg PUBLIC "-//W3C//DTD SVG 1.1//EN" "http://www.w3.org/Graphics/SVG/1.1/DTD/svg11.dtd">
<!-- Creator: CorelDRAW -->
<svg xmlns="http://www.w3.org/2000/svg" xml:space="preserve" width="50.8mm" height="50.8mm" version="1.1" style="shape-rendering:geometricPrecision; text-rendering:geometricPrecision; image-rendering:optimizeQuality; fill-rule:evenodd; clip-rule:evenodd"
viewBox="0 0 5080 5080"
 xmlns:xlink="http://www.w3.org/1999/xlink"
 xmlns:xodm="http://www.corel.com/coreldraw/odm/2003">
 <defs>
  <style type="text/css">
   <![CDATA[
    .str0 {stroke:#405D6F;stroke-width:84.67;stroke-miterlimit:22.9256}
    .fil0 {fill:white}
    .fil1 {fill:#466274;fill-rule:nonzero}
   ]]>
  </style>
 </defs>
 <g id="Ebene_x0020_1">
  <metadata id="CorelCorpID_0Corel-Layer"/>
  <g id="_2061721228656">
   <rect id="PolygonMassnahmenkatalog" class="fil0 str0" transform="matrix(0.696024 -0.696024 0.696024 0.696024 84.6637 2540.01)" width="3527.66" height="3527.66"/>
   <path class="fil1" d="M802.5 2443.29l0 -396.38 97.88 0 63.83 176.31c4.06,11.34 7.91,23.3 11.55,35.86 3.65,12.57 7.5,24.93 11.56,37.09l2.43 0c4.05,-12.16 7.8,-24.52 11.24,-37.09 3.45,-12.56 7.2,-24.52 11.25,-35.86l62.62 -176.31 97.27 0 0 396.38 -81.47 0 0 -145.3c0,-12.97 0.71,-27.46 2.13,-43.47 1.42,-16 3.04,-32.11 4.87,-48.33 1.82,-16.21 3.34,-30.6 4.56,-43.16l-2.44 0 -32.22 94.23 -56.54 151.38 -49.24 0 -56.54 -151.38 -31.61 -94.23 -2.43 0c1.62,12.56 3.24,26.95 4.86,43.16 1.62,16.22 3.14,32.33 4.56,48.33 1.42,16.01 2.13,30.5 2.13,43.47l0 145.3 -80.25 0z"/>
   <path id="_1" class="fil1" d="M1334.45 2450.59c-27.56,0 -49.45,-8.82 -65.66,-26.45 -16.21,-17.63 -24.32,-39.21 -24.32,-64.75 0,-31.61 13.38,-56.33 40.13,-74.16 26.75,-17.84 69.91,-29.79 129.49,-35.87 -0.81,-13.38 -4.76,-24.02 -11.86,-31.92 -7.09,-7.9 -18.94,-11.85 -35.56,-11.85 -12.56,0 -25.33,2.43 -38.3,7.29 -12.97,4.86 -26.75,11.55 -41.34,20.06l-32.22 -58.97c19.05,-11.75 39.41,-21.28 61.1,-28.57 21.68,-7.3 44.27,-10.94 67.78,-10.94 38.5,0 68.09,11.14 88.76,33.43 20.67,22.29 31.01,56.54 31.01,102.75l0 172.65 -72.96 0 -6.08 -31 -2.43 0c-12.56,11.34 -26.04,20.56 -40.43,27.66 -14.38,7.09 -30.09,10.64 -47.11,10.64zm30.4 -69.31c10.13,0 18.94,-2.33 26.44,-6.99 7.5,-4.66 15.1,-10.84 22.8,-18.54l0 -52.89c-31.61,4.05 -53.5,10.43 -65.66,19.15 -12.16,8.71 -18.24,18.94 -18.24,30.7 0,9.72 3.14,16.92 9.43,21.58 6.28,4.66 14.69,6.99 25.23,6.99z"/>
   <path id="_2" class="fil1" d="M1795.26 2450.59c-17.83,0 -33.94,-2.44 -48.33,-7.3 -14.39,-4.86 -28.88,-11.55 -43.47,-20.06l31.01 -60.8c19.86,14.59 39.11,21.89 57.75,21.89 10.54,0 18.75,-2.74 24.62,-8.21 5.88,-5.47 8.82,-12.46 8.82,-20.97 0,-9.32 -3.65,-17.12 -10.94,-23.41 -7.3,-6.28 -16.21,-12.16 -26.75,-17.63 -10.54,-5.47 -21.08,-11.65 -31.62,-18.54 -10.53,-6.89 -19.45,-15.4 -26.74,-25.53 -7.3,-10.14 -10.95,-23.31 -10.95,-39.52 0,-11.75 2.13,-21.88 6.39,-30.4 4.25,-8.51 9.32,-16.61 15.19,-24.31 5.88,-7.7 10.95,-15.71 15.2,-24.02 4.26,-8.31 6.39,-17.93 6.39,-28.87 0,-11.76 -3.35,-21.59 -10.03,-29.49 -6.69,-7.9 -16.32,-11.85 -28.88,-11.85 -18.65,0 -32.63,6.78 -41.95,20.36 -9.32,13.58 -13.98,32.12 -13.98,55.63l0 285.73 -88.15 0 0 -296.07c0,-26.34 5.16,-49.75 15.5,-70.21 10.33,-20.47 26.24,-36.58 47.72,-48.34 21.48,-11.75 48.43,-17.63 80.86,-17.63 27.96,0 51.17,4.87 69.61,14.6 18.44,9.72 32.22,22.29 41.34,37.69 9.12,15.4 13.68,31.81 13.68,49.24 0,14.59 -2.44,26.95 -7.3,37.08 -4.86,10.14 -10.33,18.95 -16.41,26.45 -6.08,7.5 -11.55,14.69 -16.42,21.58 -4.86,6.89 -7.29,14.19 -7.29,21.89 0,8.1 3.64,14.89 10.94,20.36 7.29,5.48 16.21,10.95 26.75,16.42 10.54,5.47 21.07,11.95 31.61,19.45 10.54,7.5 19.46,17.23 26.75,29.18 7.3,11.96 10.94,27.26 10.94,45.9 0,18.24 -4.25,34.96 -12.76,50.16 -8.51,15.2 -20.98,27.25 -37.39,36.17 -16.42,8.92 -36.98,13.38 -61.71,13.38z"/>
   <path id="_3" class="fil1" d="M1963.06 2443.29l0 -301.54 72.95 0 6.08 38.3 2.43 0c12.97,-12.16 27.26,-22.8 42.86,-31.91 15.6,-9.12 33.54,-13.68 53.8,-13.68 32.83,0 56.64,10.84 71.44,32.52 14.79,21.68 22.19,51.37 22.19,89.06l0 187.25 -89.37 0 0 -175.69c0,-21.89 -2.94,-36.89 -8.82,-44.99 -5.87,-8.11 -15.3,-12.16 -28.27,-12.16 -11.34,0 -21.07,2.53 -29.18,7.6 -8.1,5.06 -17.02,12.26 -26.75,21.58l0 203.66 -89.36 0z"/>
   <path id="_4" class="fil1" d="M2386.79 2450.59c-27.56,0 -49.45,-8.82 -65.66,-26.45 -16.21,-17.63 -24.32,-39.21 -24.32,-64.75 0,-31.61 13.38,-56.33 40.13,-74.16 26.75,-17.84 69.91,-29.79 129.49,-35.87 -0.81,-13.38 -4.76,-24.02 -11.86,-31.92 -7.09,-7.9 -18.94,-11.85 -35.56,-11.85 -12.56,0 -25.33,2.43 -38.3,7.29 -12.97,4.86 -26.75,11.55 -41.34,20.06l-32.22 -58.97c19.05,-11.75 39.41,-21.28 61.1,-28.57 21.68,-7.3 44.27,-10.94 67.78,-10.94 38.5,0 68.09,11.14 88.76,33.43 20.67,22.29 31.01,56.54 31.01,102.75l0 172.65 -72.96 0 -6.08 -31 -2.43 0c-12.56,11.34 -26.04,20.56 -40.43,27.66 -14.38,7.09 -30.09,10.64 -47.11,10.64zm30.4 -69.31c10.13,0 18.94,-2.33 26.44,-6.99 7.5,-4.66 15.1,-10.84 22.8,-18.54l0 -52.89c-31.61,4.05 -53.5,10.43 -65.66,19.15 -12.16,8.71 -18.24,18.94 -18.24,30.7 0,9.72 3.14,16.92 9.43,21.58 6.28,4.66 14.69,6.99 25.23,6.99z"/>
   <path id="_5" class="fil1" d="M2631.18 2443.29l0 -426.17 89.36 0 0 104.57 -4.25 54.11c11.35,-10.14 24.62,-19.56 39.82,-28.27 15.2,-8.72 32.93,-13.07 53.19,-13.07 32.83,0 56.64,10.84 71.44,32.52 14.79,21.68 22.19,51.37 22.19,89.06l0 187.25 -89.37 0 0 -175.69c0,-21.89 -2.94,-36.89 -8.82,-44.99 -5.87,-8.11 -15.3,-12.16 -28.27,-12.16 -11.34,0 -21.07,2.53 -29.18,7.6 -8.1,5.06 -17.02,12.26 -26.75,21.58l0 203.66 -89.36 0z"/>
   <path id="_6" class="fil1" d="M2978.31 2443.29l0 -301.54 72.95 0 6.08 38.91 2.43 0c12.56,-12.56 25.94,-23.41 40.12,-32.52 14.19,-9.12 31.21,-13.68 51.07,-13.68 21.48,0 38.81,4.35 51.98,13.07 13.17,8.71 23.61,21.17 31.31,37.39 13.37,-13.78 27.56,-25.64 42.55,-35.57 15,-9.93 32.43,-14.89 52.29,-14.89 32.42,0 56.23,10.84 71.43,32.52 15.2,21.68 22.8,51.37 22.8,89.06l0 187.25 -89.37 0 0 -175.69c0,-21.89 -2.94,-36.89 -8.81,-44.99 -5.88,-8.11 -15.3,-12.16 -28.27,-12.16 -15,0 -32.22,9.73 -51.68,29.18l0 203.66 -89.37 0 0 -175.69c0,-21.89 -2.93,-36.89 -8.81,-44.99 -5.88,-8.11 -15.3,-12.16 -28.27,-12.16 -15,0 -32.02,9.73 -51.07,29.18l0 203.66 -89.36 0z"/>
   <path id="_7" class="fil1" d="M3634.27 2450.59c-28.78,0 -54.72,-6.29 -77.82,-18.85 -23.1,-12.56 -41.34,-30.6 -54.71,-54.11 -13.38,-23.5 -20.06,-51.88 -20.06,-85.11 0,-32.83 6.78,-61 20.36,-84.5 13.58,-23.51 31.31,-41.65 53.2,-54.41 21.88,-12.77 44.78,-19.15 68.69,-19.15 28.78,0 52.59,6.38 71.44,19.15 18.84,12.76 33.03,29.99 42.55,51.67 9.53,21.68 14.29,46.31 14.29,73.87 0,7.7 -0.41,15.3 -1.22,22.79 -0.81,7.5 -1.62,13.07 -2.43,16.72l-180.56 0c4.06,21.89 13.18,38 27.36,48.33 14.19,10.34 31.21,15.51 51.07,15.51 21.48,0 43.16,-6.69 65.05,-20.07l29.79 54.11c-15.4,10.54 -32.63,18.85 -51.68,24.93 -19.05,6.08 -37.49,9.12 -55.32,9.12zm-66.87 -190.9l108.82 0c0,-16.61 -3.95,-30.29 -11.86,-41.03 -7.9,-10.74 -20.77,-16.11 -38.6,-16.11 -13.78,0 -26.14,4.76 -37.09,14.28 -10.94,9.53 -18.03,23.81 -21.27,42.86z"/>
   <path id="_8" class="fil1" d="M3814.22 2443.29l0 -301.54 72.95 0 6.08 38.3 2.43 0c12.97,-12.16 27.26,-22.8 42.86,-31.91 15.6,-9.12 33.54,-13.68 53.8,-13.68 32.83,0 56.64,10.84 71.44,32.52 14.79,21.68 22.19,51.37 22.19,89.06l0 187.25 -89.37 0 0 -175.69c0,-21.89 -2.94,-36.89 -8.82,-44.99 -5.87,-8.11 -15.3,-12.16 -28.27,-12.16 -11.34,0 -21.07,2.53 -29.18,7.6 -8.1,5.06 -17.02,12.26 -26.75,21.58l0 203.66 -89.36 0z"/>
   <polygon id="_9" class="fil1" points="4148.58,2321.09 4148.58,2257.87 4298.13,2257.87 4298.13,2321.09 "/>
   <polygon id="_10" class="fil1" points="1572.76,3207.47 1572.76,2781.3 1659.69,2781.3 1659.69,3025.7 1662.12,3025.7 1757.57,2905.93 1854.84,2905.93 1749.06,3029.95 1862.74,3207.47 1766.08,3207.47 1697.99,3090.14 1659.69,3133.3 1659.69,3207.47 "/>
   <path id="_11" class="fil1" d="M1975.82 3214.77c-27.56,0 -49.45,-8.82 -65.66,-26.45 -16.21,-17.63 -24.32,-39.21 -24.32,-64.75 0,-31.61 13.38,-56.33 40.13,-74.16 26.75,-17.84 69.91,-29.79 129.49,-35.87 -0.81,-13.38 -4.76,-24.02 -11.86,-31.92 -7.09,-7.9 -18.94,-11.85 -35.56,-11.85 -12.56,0 -25.33,2.43 -38.3,7.29 -12.97,4.86 -26.75,11.55 -41.34,20.06l-32.22 -58.97c19.05,-11.75 39.41,-21.28 61.1,-28.57 21.68,-7.3 44.27,-10.94 67.78,-10.94 38.5,0 68.09,11.14 88.76,33.43 20.67,22.29 31.01,56.54 31.01,102.75l0 172.65 -72.96 0 -6.08 -31 -2.43 0c-12.56,11.34 -26.04,20.56 -40.43,27.66 -14.38,7.09 -30.09,10.64 -47.11,10.64zm30.4 -69.31c10.13,0 18.94,-2.33 26.44,-6.99 7.5,-4.66 15.1,-10.84 22.8,-18.54l0 -52.89c-31.61,4.05 -53.5,10.43 -65.66,19.15 -12.16,8.71 -18.24,18.94 -18.24,30.7 0,9.72 3.14,16.92 9.43,21.58 6.28,4.66 14.69,6.99 25.23,6.99z"/>
   <path id="_12" class="fil1" d="M2325.38 3214.77c-37.28,0 -63.93,-10.74 -79.94,-32.23 -16.01,-21.48 -24.02,-49.64 -24.02,-84.5l0 -122.2 -41.34 0 0 -66.26 46.21 -3.65 10.33 -80.25 74.17 0 0 80.25 72.35 0 0 69.91 -72.35 0 0 120.98c0,17.03 3.55,29.29 10.64,36.79 7.09,7.49 16.52,11.24 28.27,11.24 4.86,0 9.83,-0.61 14.89,-1.82 5.07,-1.22 9.63,-2.64 13.68,-4.26l13.99 65.05c-7.7,2.43 -17.13,4.87 -28.27,7.3 -11.15,2.43 -24.02,3.65 -38.61,3.65z"/>
   <path id="_13" class="fil1" d="M2505.94 3214.77c-27.56,0 -49.45,-8.82 -65.66,-26.45 -16.21,-17.63 -24.32,-39.21 -24.32,-64.75 0,-31.61 13.38,-56.33 40.13,-74.16 26.75,-17.84 69.91,-29.79 129.49,-35.87 -0.81,-13.38 -4.76,-24.02 -11.86,-31.92 -7.09,-7.9 -18.94,-11.85 -35.56,-11.85 -12.56,0 -25.33,2.43 -38.3,7.29 -12.97,4.86 -26.75,11.55 -41.34,20.06l-32.22 -58.97c19.05,-11.75 39.41,-21.28 61.1,-28.57 21.68,-7.3 44.27,-10.94 67.78,-10.94 38.5,0 68.09,11.14 88.76,33.43 20.67,22.29 31.01,56.54 31.01,102.75l0 172.65 -72.96 0 -6.08 -31 -2.43 0c-12.56,11.34 -26.04,20.56 -40.43,27.66 -14.38,7.09 -30.09,10.64 -47.11,10.64zm30.4 -69.31c10.13,0 18.94,-2.33 26.44,-6.99 7.5,-4.66 15.1,-10.84 22.8,-18.54l0 -52.89c-31.61,4.05 -53.5,10.43 -65.66,19.15 -12.16,8.71 -18.24,18.94 -18.24,30.7 0,9.72 3.14,16.92 9.43,21.58 6.28,4.66 14.69,6.99 25.23,6.99z"/>
   <path id="_14" class="fil1" d="M2832.4 3214.77c-30.8,0 -52.18,-9.23 -64.14,-27.67 -11.96,-18.44 -17.93,-42.86 -17.93,-73.25l0 -332.55 89.36 0 0 336.19c0,9.33 1.73,15.81 5.17,19.46 3.45,3.65 6.99,5.47 10.64,5.47 2.03,0 3.75,-0.1 5.17,-0.3 1.42,-0.21 3.34,-0.51 5.77,-0.92l10.95 66.27c-4.87,2.03 -11.05,3.75 -18.55,5.17 -7.49,1.42 -16.31,2.13 -26.44,2.13z"/>
   <path id="_15" class="fil1" d="M3053.69 3214.77c-25.54,0 -49.55,-6.19 -72.04,-18.55 -22.5,-12.36 -40.63,-30.39 -54.41,-54.1 -13.78,-23.71 -20.67,-52.19 -20.67,-85.42 0,-33.64 6.89,-62.21 20.67,-85.72 13.78,-23.51 31.91,-41.44 54.41,-53.8 22.49,-12.36 46.5,-18.54 72.04,-18.54 25.53,0 49.44,6.18 71.73,18.54 22.3,12.36 40.33,30.29 54.11,53.8 13.78,23.51 20.67,52.08 20.67,85.72 0,33.23 -6.89,61.71 -20.67,85.42 -13.78,23.71 -31.81,41.74 -54.11,54.1 -22.29,12.36 -46.2,18.55 -71.73,18.55zm0 -72.35c18.24,0 32.02,-7.8 41.34,-23.41 9.32,-15.6 13.98,-36.37 13.98,-62.31 0,-26.34 -4.66,-47.22 -13.98,-62.62 -9.32,-15.4 -23.1,-23.1 -41.34,-23.1 -18.65,0 -32.53,7.7 -41.65,23.1 -9.12,15.4 -13.68,36.28 -13.68,62.62 0,25.94 4.56,46.71 13.68,62.31 9.12,15.61 23,23.41 41.65,23.41z"/>
   <path id="_16" class="fil1" d="M3369.21 3335.75c-23.51,0 -44.78,-2.64 -63.83,-7.91 -19.05,-5.27 -34.25,-13.58 -45.6,-24.92 -11.35,-11.35 -17.02,-25.94 -17.02,-43.78 0,-24.31 14.39,-44.58 43.16,-60.79l0 -2.43c-7.7,-5.27 -14.28,-11.96 -19.75,-20.06 -5.48,-8.11 -8.21,-18.44 -8.21,-31.01 0,-10.94 3.24,-21.48 9.73,-31.61 6.48,-10.13 14.59,-18.44 24.31,-24.93l0 -2.43c-10.53,-7.29 -19.96,-17.83 -28.27,-31.61 -8.3,-13.78 -12.46,-29.38 -12.46,-46.81 0,-24.32 5.88,-44.48 17.63,-60.49 11.75,-16.01 27.16,-28.07 46.2,-36.17 19.05,-8.11 39.32,-12.16 60.8,-12.16 17.83,0 33.44,2.43 46.81,7.29l110.04 0 0 65.05 -48.03 0c2.84,4.46 5.17,10.13 6.99,17.02 1.83,6.89 2.74,14.39 2.74,22.5 0,23.1 -5.27,42.15 -15.81,57.14 -10.54,15 -24.72,26.15 -42.56,33.44 -17.83,7.3 -37.89,10.94 -60.18,10.94 -11.75,0 -23.91,-2.02 -36.48,-6.08 -7.29,6.08 -10.94,13.58 -10.94,22.5 0,7.7 3.44,13.37 10.33,17.02 6.89,3.65 18.65,5.47 35.26,5.47l48.64 0c37.29,0 65.76,5.98 85.42,17.94 19.65,11.95 29.48,31.51 29.48,58.66 0,20.67 -6.89,39.21 -20.67,55.63 -13.78,16.41 -33.23,29.28 -58.36,38.6 -25.13,9.32 -54.92,13.99 -89.37,13.99zm6.69 -277.83c11.75,0 21.58,-4.26 29.48,-12.77 7.91,-8.51 11.86,-21.08 11.86,-37.69 0,-15.81 -3.95,-27.87 -11.86,-36.17 -7.9,-8.31 -17.73,-12.47 -29.48,-12.47 -11.75,0 -21.58,4.06 -29.49,12.16 -7.9,8.11 -11.85,20.27 -11.85,36.48 0,16.61 3.95,29.18 11.85,37.69 7.91,8.51 17.74,12.77 29.49,12.77zm7.29 221.89c20.27,0 36.89,-3.64 49.86,-10.94 12.96,-7.29 19.45,-16.01 19.45,-26.14 0,-9.32 -3.95,-15.6 -11.86,-18.85 -7.9,-3.24 -19.35,-4.86 -34.34,-4.86l-31.01 0c-10.13,0 -18.54,-0.3 -25.23,-0.91 -6.69,-0.61 -12.46,-1.52 -17.32,-2.74 -10.95,9.73 -16.42,19.66 -16.42,29.79 0,11.35 6.18,19.96 18.54,25.84 12.36,5.88 28.47,8.81 48.33,8.81z"/>
  </g>
 </g>
</svg>
