<?xml version="1.0" encoding="UTF-16"?>
<!DOCTYPE svg PUBLIC "-//W3C//DTD SVG 1.1//EN" "http://www.w3.org/Graphics/SVG/1.1/DTD/svg11.dtd">
<!-- Creator: CorelDRAW 2020 -->
<svg xmlns="http://www.w3.org/2000/svg" xml:space="preserve" width="50.8mm" height="50.8mm" version="1.1" style="shape-rendering:geometricPrecision; text-rendering:geometricPrecision; image-rendering:optimizeQuality; fill-rule:evenodd; clip-rule:evenodd"
viewBox="0 0 5080 5080"
 xmlns:xlink="http://www.w3.org/1999/xlink"
 xmlns:xodm="http://www.corel.com/coreldraw/odm/2003">
 <defs>
  <style type="text/css">
   <![CDATA[
    .fil0 {fill:#89c6ee}
   ]]>
  </style>
 </defs>
 <g id="Ebene_x0020_1">
  <metadata id="CorelCorpID_0Corel-Layer"/>
  <path class="fil0" d="M1039.1 575.74c0,278.49 351.39,438.83 451.79,628.57 -102.68,153.32 -404.8,233.32 -585.06,279.22 -221.8,56.46 -463.3,119.34 -691.72,172.55l157.15 648.21c43.7,174.79 98.62,522.87 216.07,608.92 233.96,-62.47 192.02,-333.92 589.27,-333.92 445.8,0 620.77,576.51 378.5,849.92 -305.75,345.08 -595.98,73.28 -771.35,73.28 -156.93,0 -35.39,310.37 -3.97,436.1l172.88 691.41c27.04,108.15 78.11,265.25 86.44,365.33l1334.54 -338.54c-66.35,-94.56 -391.69,-251.61 -391.69,-604.31 0,-243.44 276.62,-530.35 530.35,-530.35 253.7,0 589.28,131.18 589.28,432.14 0,365.01 -89.89,345.59 -137.51,549.99l1276.74 -314.38c-51.51,-221.17 -107.98,-431.81 -164.98,-659.88l-168.91 -675.72c0,-271.44 278.34,-276.96 454.32,-218.61 160.56,53.23 263.72,74.05 406.04,-79.94 202.23,-218.8 87.67,-781.79 -290.73,-781.79 -276.64,0 -317.17,333.93 -510.7,333.93 -98.13,0 -222.58,-98.77 -267.34,-164.8 -74.92,-110.59 -154.97,-542.36 -196.21,-707.36 -27.04,-108.16 -78.11,-265.26 -86.44,-365.33 -97.16,0 -492.98,107.22 -630.18,135.88 -207.27,43.31 -725.17,214.45 -725.17,40.9 0,-251.12 293.09,-678.12 -45.12,-858.43 -136.06,-72.52 -259.21,-102.76 -368.63,-104.05l-3.71 0c-389.64,-2.23 -603.95,363.11 -603.95,491.06z"/>
 </g>
</svg>
